Length,0.0766,K,Length,0.1384,K
30,0.003175,9448.818898,20,0.022225,899.8875141
30,0.003175,9448.818898,20,0.022225,899.8875141
45,0.0047625,9448.818898,23,0.0254,905.511811
32,0.003175,10078.74016,27,0.028575,944.8818898
45,0.0047625,9448.818898,23,0.0254,905.511811
0,0,9574.80315,0,0,911.136108
*units in N/m,,,,,
